﻿ADMAS,Lisa,JPOP/アニソン,10000,1,2,3
アイリス,藍井エイル,JPOP/アニソン,1002,2,5,8
COOLEST,カスタマイZ,JPOP/アニソン,1003,2,5,8
ZERO,小野賢章,JPOP/アニソン,1004,2,5,8
ピースサイン,米津玄師,JPOP/アニソン,1005,2,5,8
Courage,戸松遥,JPOP/アニソン,1006,2,5,8
No pain No game,Nano(ナノ),JPOP/アニソン,1007,2,5,8
ヒバナ,あらき,ボカロ,1008,2,5,8
い～やい～やい～や,あらき,ボカロ,1009,2,5,8
時ノ雨、最終戦争,ウォルピスカーター,ボカロ,10010,2,5,8
千の翼,livetune,JPOP/アニソン,100,2,5,8
オレンジ,7!!,JPOP/アニソン,100,2,5,8
ファンファーレ,sumika,JPOP/アニソン,100,2,5,8
アマデウス,いとうかなこ,JPOP/ゲーム,100,2,5,8
鱗,秦基博,JPOP,100,2,5,8
気まぐれメルシィ,あらき,ボカロ,100,2,5,8
オラシオン,鈴木このみ,JPOP/アニソン,100,2,5,8
シンシアの光,藍井エイル,JPOP/ゲーム,100,2,5,8
華のうちに,松方弘樹,演歌,37564,4,8,12
