%YAML 1.1
%TAG !u! tag:unity3d.com,2011:
--- !u!78 &1
TagManager:
  serializedVersion: 2
  tags: []
  layers:
  - Default
  - TransparentFX
  - Ignore Raycast
  - 
  - Water
  - UI
  - 
  - 
  - 
  - 
  - 
  - 
  - 
  - 
  - 
  - 
  - 
  - 
  - 
  - 
  - 
  - 
  - 
  - 
  - 
  - 
  - 
  - 
  - 
  - 
  - 
  - 
  m_SortingLayers:
  - name: Default
    uniqueID: 0
    locked: 0
  - name: BG
    uniqueID: 4057961319
    locked: 0
  - name: BGEffect
    uniqueID: 3989394791
    locked: 0
  - name: Bar
    uniqueID: 3003982287
    locked: 0
  - name: Notes
    uniqueID: 375927867
    locked: 0
  - name: NotesEffect
    uniqueID: 2013804525
    locked: 0
  - name: UI
    uniqueID: 411772043
    locked: 0
